%YAML 1.1
%TAG !u! tag:unity3d.com,2011:
--- !u!1 &5104722924817980468
GameObject:
  m_ObjectHideFlags: 0
  m_CorrespondingSourceObject: {fileID: 0}
  m_PrefabInstance: {fileID: 0}
  m_PrefabAsset: {fileID: 0}
  serializedVersion: 6
  m_Component:
  - component: {fileID: 4108110110742095570}
  - component: {fileID: 3649944881173463003}
  m_Layer: 0
  m_Name: Tile
  m_TagString: Untagged
  m_Icon: {fileID: 0}
  m_NavMeshLayer: 0
  m_StaticEditorFlags: 0
  m_IsActive: 1
--- !u!4 &4108110110742095570
Transform:
  m_ObjectHideFlags: 0
  m_CorrespondingSourceObject: {fileID: 0}
  m_PrefabInstance: {fileID: 0}
  m_PrefabAsset: {fileID: 0}
  m_GameObject: {fileID: 5104722924817980468}
  m_LocalRotation: {x: 0, y: 0, z: 0, w: 1}
  m_LocalPosition: {x: 0, y: 0, z: 0}
  m_LocalScale: {x: 1, y: 1, z: 1}
  m_Children: []
  m_Father: {fileID: 0}
  m_RootOrder: 0
  m_LocalEulerAnglesHint: {x: 0, y: 0, z: 0}
--- !u!114 &3649944881173463003
MonoBehaviour:
  m_ObjectHideFlags: 0
  m_CorrespondingSourceObject: {fileID: 0}
  m_PrefabInstance: {fileID: 0}
  m_PrefabAsset: {fileID: 0}
  m_GameObject: {fileID: 5104722924817980468}
  m_Enabled: 1
  m_EditorHideFlags: 0
  m_Script: {fileID: 11500000, guid: b12d6314f498b2f4a93d909b4c166c86, type: 3}
  m_Name: 
  m_EditorClassIdentifier: 
  m_RoadsPrefab:
  - {fileID: 1241775101483234300, guid: 86dd44529138c60419275ce35510d81d, type: 3}
  - {fileID: 6213021411392993753, guid: 61d4ca231fcf46e4d8efefa9987cd964, type: 3}
  - {fileID: 8011345715710479015, guid: 2755e2450f40d63428c1a05377b89ca7, type: 3}
  - {fileID: 8989126977572689608, guid: a87b43ea9328aed43a1b06c0435ebe2d, type: 3}
  m_HighlightPosition: {x: 0, y: 0.25, z: 0}
  m_Data:
    m_Position: {x: 0, y: 0}
    m_DirectionEnum: 0
    m_Type: {fileID: 0}
    m_Roads: 0
    m_Direction: {fileID: 0}
  m_Tile: {fileID: 0}
  m_Hide: 0
  m_Highlight: 0
  m_PositionOriginal: {x: 0, y: 0, z: 0}
