%YAML 1.1
%TAG !u! tag:unity3d.com,2011:
--- !u!114 &11400000
MonoBehaviour:
  m_ObjectHideFlags: 0
  m_CorrespondingSourceObject: {fileID: 0}
  m_PrefabInstance: {fileID: 0}
  m_PrefabAsset: {fileID: 0}
  m_GameObject: {fileID: 0}
  m_Enabled: 1
  m_EditorHideFlags: 0
  m_Script: {fileID: 11500000, guid: 4adf04a1139c74841a7e89206dba5bac, type: 3}
  m_Name: Setup 1
  m_EditorClassIdentifier: 
  m_ObjectiveCardsQty: 1
  m_PlayerCards: 3
  m_Cards:
  - {fileID: 11400000, guid: 06f0cb9139c3987408894c346b64a809, type: 2}
  - {fileID: 11400000, guid: eace06d973ed59644adbc1733d56de84, type: 2}
  - {fileID: 11400000, guid: 353f00d31bca8ba468b3e8e25f32c25c, type: 2}
  - {fileID: 11400000, guid: 5c33b2d000ead154ca57ff3800e2c6b1, type: 2}
  - {fileID: 11400000, guid: fbea80fd36d7faab08d998626c324d61, type: 2}
  - {fileID: 11400000, guid: 2c2bdedc1fdd30947b31cf183f3ef03c, type: 2}
  - {fileID: 11400000, guid: 4fb02a8c965293f4cbd6cd641c0aec24, type: 2}
  - {fileID: 11400000, guid: 40f099884ad29ba45b6b91c042a27405, type: 2}
  - {fileID: 11400000, guid: 3f14e30c71eec5140850a7cc4b505eb3, type: 2}
  - {fileID: 11400000, guid: 4473df9b8b58c6e409152b9f8bed161e, type: 2}
  - {fileID: 11400000, guid: ef779cb0c5053294c995d10ef0f59c58, type: 2}
  - {fileID: 11400000, guid: 27f0a2b67eb22f945be1fa7546580d02, type: 2}
  - {fileID: 11400000, guid: 3d73eebf368406e4581b821ce722fb37, type: 2}
  - {fileID: 11400000, guid: 79ef2713b5b374a4fae3b7af982a4d62, type: 2}
  - {fileID: 11400000, guid: fe51c8c83a2c0e34d83e8ba61edf9ed2, type: 2}
  - {fileID: 11400000, guid: b3dace26ec84ec3468b1d62d58ab5c34, type: 2}
  - {fileID: 11400000, guid: b8be601b515390f4496b655cdbb40509, type: 2}
  - {fileID: 11400000, guid: 4a20720e7afec8145aac19ed02f2e73d, type: 2}
  m_ObjectiveCardDifficulty: {fileID: 11400000, guid: 20d447ff76c8c3c628f7000fff73a96d,
    type: 2}
  m_ObjectiveCards:
  - {fileID: 11400000, guid: 554633eba5c3553dbb4e11a0359e0c12, type: 2}
  m_DirectionDefault: {fileID: 11400000, guid: 5bf53a389013d484198af63106b5bf84, type: 2}
