%YAML 1.1
%TAG !u! tag:unity3d.com,2011:
--- !u!114 &11400000
MonoBehaviour:
  m_ObjectHideFlags: 0
  m_CorrespondingSourceObject: {fileID: 0}
  m_PrefabInstance: {fileID: 0}
  m_PrefabAsset: {fileID: 0}
  m_GameObject: {fileID: 0}
  m_Enabled: 1
  m_EditorHideFlags: 0
  m_Script: {fileID: 11500000, guid: 77bcc678294e04949897776bfc558498, type: 3}
  m_Name: S Industrial
  m_EditorClassIdentifier: 
  m_Title: Industrial
  m_Color: {r: 0.5566038, g: 0.5566038, b: 0.5566038, a: 1}
  m_Prefab: {fileID: 7130214056853290157, guid: be58b6b8d3ea5f9429c94e2209e6819f,
    type: 3}
