%YAML 1.1
%TAG !u! tag:unity3d.com,2011:
--- !u!114 &11400000
MonoBehaviour:
  m_ObjectHideFlags: 0
  m_CorrespondingSourceObject: {fileID: 0}
  m_PrefabInstance: {fileID: 0}
  m_PrefabAsset: {fileID: 0}
  m_GameObject: {fileID: 0}
  m_Enabled: 1
  m_EditorHideFlags: 0
  m_Script: {fileID: 11500000, guid: 97ab1e26d9a4adac8be5b05b186f1ee6, type: 3}
  m_Name: 02 Bloom Bloom
  m_EditorClassIdentifier: 
  m_ObjectivePoints: 2
  m_Title: Bloom Bloom
  m_Objectives:
  - {fileID: 11400000, guid: ff27e5023698f6c6992c97ffa27cb0fb, type: 2}
  - {fileID: 11400000, guid: 53c5264a888b044cfb3def995fa7a528, type: 2}
