%YAML 1.1
%TAG !u! tag:unity3d.com,2011:
--- !u!114 &11400000
MonoBehaviour:
  m_ObjectHideFlags: 0
  m_CorrespondingSourceObject: {fileID: 0}
  m_PrefabInstance: {fileID: 0}
  m_PrefabAsset: {fileID: 0}
  m_GameObject: {fileID: 0}
  m_Enabled: 1
  m_EditorHideFlags: 0
  m_Script: {fileID: 11500000, guid: 1e15ccf43ba8f3d4a9bb804cfec4f2b6, type: 3}
  m_Name: 00 Edge Type
  m_EditorClassIdentifier: 
  m_TileType: {fileID: 0}
  m_Points: 1
  m_Title: Objective Edge Type
  m_Description: Objective Edge TypeObjective Edge Type
  m_AtBorder: 0
