%YAML 1.1
%TAG !u! tag:unity3d.com,2011:
--- !u!114 &11400000
MonoBehaviour:
  m_ObjectHideFlags: 0
  m_CorrespondingSourceObject: {fileID: 0}
  m_PrefabInstance: {fileID: 0}
  m_PrefabAsset: {fileID: 0}
  m_GameObject: {fileID: 0}
  m_Enabled: 1
  m_EditorHideFlags: 0
  m_Script: {fileID: 11500000, guid: 04d30e0571fafcb4ab9d3369ed6744f6, type: 3}
  m_Name: 06 Block Type Residential -1
  m_EditorClassIdentifier: 
  m_TileType: {fileID: 11400000, guid: b46edf1bbde2b8247882ffd1beb918c0, type: 2}
  m_Points: -1
  m_Title: Biggest {1} block
  m_Description: '{0} points for each tile in the biggest {1} block'
