%YAML 1.1
%TAG !u! tag:unity3d.com,2011:
--- !u!114 &11400000
MonoBehaviour:
  m_ObjectHideFlags: 0
  m_CorrespondingSourceObject: {fileID: 0}
  m_PrefabInstance: {fileID: 0}
  m_PrefabAsset: {fileID: 0}
  m_GameObject: {fileID: 0}
  m_Enabled: 1
  m_EditorHideFlags: 0
  m_Script: {fileID: 11500000, guid: 77bcc678294e04949897776bfc558498, type: 3}
  m_Name: A Livestock Pens Pig
  m_EditorClassIdentifier: 
  m_Title: Livestock Pens Pig
  m_Color: {r: 0.6698113, g: 0.52436596, b: 0.38861695, a: 1}
  m_Prefab: {fileID: 8656152607349876964, guid: 19a9b5fde20775044bc6738864496434,
    type: 3}
