%YAML 1.1
%TAG !u! tag:unity3d.com,2011:
--- !u!1045 &1
EditorBuildSettings:
  m_ObjectHideFlags: 0
  serializedVersion: 2
  m_Scenes:
  - enabled: 1
    path: Assets/Sprawlopolis/sceneMenu.unity
    guid: 5278002ae120e5c4c95c265250d4f203
  - enabled: 1
    path: Assets/Sprawlopolis/sceneGame.unity
    guid: bfcde9e1306de1e4baf2c216683a7dbb
  m_configObjects:
    com.unity.input.settings: {fileID: 11400000, guid: afb81391efbc63748b9cc65ef7a1e0bd,
      type: 2}
