%YAML 1.1
%TAG !u! tag:unity3d.com,2011:
--- !u!114 &11400000
MonoBehaviour:
  m_ObjectHideFlags: 0
  m_CorrespondingSourceObject: {fileID: 0}
  m_PrefabInstance: {fileID: 0}
  m_PrefabAsset: {fileID: 0}
  m_GameObject: {fileID: 0}
  m_Enabled: 1
  m_EditorHideFlags: 0
  m_Script: {fileID: 11500000, guid: 14ff0b6ae65935e4f954ab7b4a6e4c9b, type: 3}
  m_Name: 4 CVLO WEWS__NS
  m_EditorClassIdentifier: 
  m_Title: 4 CVLO WEWS__NS
  m_CardNum: 4
  m_Tiles:
  - m_Position: {x: 1, y: 0}
    m_Direction: 0
    m_Type: {fileID: 11400000, guid: d02fcbe570aa0de4c846e5689f92dec9, type: 2}
    m_Roads: 10
  - m_Position: {x: 0, y: 0}
    m_Direction: 0
    m_Type: {fileID: 11400000, guid: 8a2c5e678c11c21498a64dd3925f9217, type: 2}
    m_Roads: 6
  - m_Position: {x: 1, y: 1}
    m_Direction: 0
    m_Type: {fileID: 11400000, guid: eeb14554fb70ddf4c83b0dd7f795f06a, type: 2}
    m_Roads: 0
  - m_Position: {x: 0, y: 1}
    m_Direction: 0
    m_Type: {fileID: 11400000, guid: 6f6306964c11c304ba0559654723f1a6, type: 2}
    m_Roads: 5
